{
  "Prototypes":
  [
    {
      "Key": "player",
      "Components":
      [
        {
          "Type": "physical",
          "Initial":
          {
            "x": 50,
            "y": 50
          }
        },
        
        {
          "Type": "renderable",
          "TextureId": "MineMan1"
        },
        
        {
          "Type": "movable",
          "Initial": "0"
        },
        
        {
          "Type": "massive",
          "Mass": "1"
        },
        
        {
          "Type": "movementIntents"
        },
        
        {
          "Type": "collideable"
        },
        
        {
          "Type": "solid"
        }
      ]
    },
    
    {
      "Key": "caveFloorTile",
      "Components":
      [
        {
          "Type": "physical",
          "Initial":
          {
            "X": 50,
            "Y": 200
          }
        },
          
        {
          "Type": "renderable",
          "TextureId": "GrassTile"
        },
          
        {
          "Type": "collideable"
        },
          
        {
          "Type": "solid"
        }
      ]
    }
  ]
}